\relax 
\@writefile{toc}{\contentsline {section}{\numberline {1}Introduction}{1}}
\@writefile{toc}{\contentsline {section}{\numberline {2}Implementation}{2}}
\@writefile{toc}{\contentsline {subsection}{\numberline {2.1}Language and Compilers Used}{2}}
\@writefile{toc}{\contentsline {subsection}{\numberline {2.2}Implementation Details}{2}}
\@writefile{lof}{\contentsline {figure}{\numberline {1}{\ignorespaces Na\"ive 2-norm Implementation}}{2}}
\@writefile{lof}{\contentsline {figure}{\numberline {2}{\ignorespaces Na\"ive Matrix-Vector Multiply Implementation}}{2}}
\@writefile{lof}{\contentsline {figure}{\numberline {3}{\ignorespaces Na\"ive Matrix-Matrix Multiply Implementation}}{3}}
\@writefile{toc}{\contentsline {subsection}{\numberline {2.3}Testing}{3}}
\@writefile{toc}{\contentsline {section}{\numberline {3}Performance Results}{4}}
\@writefile{toc}{\contentsline {subsection}{\numberline {3.1}Results on Macbook Pro}{4}}
\@writefile{toc}{\contentsline {subsection}{\numberline {3.2}Results on Dell Studio}{5}}
\@writefile{toc}{\contentsline {subsection}{\numberline {3.3}Results on Darter}{6}}
\@writefile{toc}{\contentsline {section}{\numberline {4}Conclusion}{8}}
